"Message in a Bottle" by "The Police"

Main_riff:

  -e|       |       |       |       |
  -B|       |       |       |       |
  -G|    8  |    4  |    6  |       |
  -D|  6    |. 2    |  4    |    6/7|
  -A|4     0|      2|.      |. 4    |
  -E|       |       |      2|       |

# 1 . . . 2 . . . 3 . . . 4 . . .
# 1 3 4 0   1 3 1   3 4 1   3 4 

Intro:   Main_riff x2

Verse:   Main_riff x8

Chorus:

  | AV  /  /  /  |  DV / / EVII . . . . | x2
  | F#mII / / /  |  DV   /      /   /   | x3

Short_bridge:

  | C#mIV | AV |  x3
  | F#mII | /  |

Long_bridge:

  | C#mIV | AV |  x3
  Short_bridge

AV:    577655
DV:    x57775
EVII:  x79997
F#mII: 244322
C#mIV: x46654

Outro: 
  Main_riff x4 x5
  (Begin fade)
  Main_riff x4

Song:
  Intro
  Verse
  Chorus
  Short_bridge
  Verse
  Chorus
  Long_bridge
  Verse
  Chorus
  Long_bridge
  Outro